RTL/i_mem_TB.vcd
$date
	Sun Apr 21 18:02:44 2024
$end
$version
	Icarus Verilog
$end
$timescale
	1ps
$end
$scope module i_mem_tb $end
$var wire 32 ! rd_dout0 [31:0] $end
$var reg 1 " clk $end
$var reg 32 # rd_addr0 [31:0] $end
$var reg 1 $ rst $end
$var reg 1 % we0 $end
$var reg 32 & wr_addr0 [31:0] $end
$var reg 32 ' wr_din0 [31:0] $end
$var integer 32 ( i [31:0] $end
$scope module DUT $end
$var wire 1 " clk $end
$var wire 32 ) rd_addr0 [31:0] $end
$var wire 1 $ rst $end
$var wire 1 % we0 $end
$var wire 32 * wr_addr0 [31:0] $end
$var wire 32 + wr_din0 [31:0] $end
$var wire 32 , rd_dout0 [31:0] $end
$scope module iram $end
$var wire 1 " clk $end
$var wire 9 - rd_addr0 [8:0] $end
$var wire 1 $ rst $end
$var wire 1 % we0 $end
$var wire 9 . wr_addr0 [8:0] $end
$var wire 32 / wr_din0 [31:0] $end
$var wire 7 0 write_adr [6:0] $end
$var wire 7 1 read_adr [6:0] $end
$var reg 32 2 rd_dout0 [31:0] $end
$var integer 32 3 i [31:0] $end
$upscope $end
$upscope $end
$upscope $end
$enddefinitions $end
#0
$dumpvars
b0 3
b10100000010110111 2
b0 1
b0 0
bx /
b0 .
b0 -
b10100000010110111 ,
bx +
b0 *
b0 )
bx (
bx '
b0 &
0%
1$
b0 #
0"
b10100000010110111 !
$end
#10000
b0 (
1"
#20000
b1001000100110111 !
b1001000100110111 ,
b1001000100110111 2
b1 1
b100 -
b100 #
b100 )
b1 (
0"
#30000
b1000000001000001000000100110011 !
b1000000001000001000000100110011 ,
b1000000001000001000000100110011 2
b10 1
b1000 -
b1000 #
b1000 )
b10 (
1"
#40000
b10000010101000110010011 !
b10000010101000110010011 ,
b10000010101000110010011 2
b11 1
b1100 -
b1100 #
b1100 )
b11 (
0"
#50000
b1100001101001000110011 !
b1100001101001000110011 ,
b1100001101001000110011 2
b100 1
b10000 -
b10000 #
b10000 )
b100 (
1"
#60000
b1000011000001001100011 !
b1000011000001001100011 ,
b1000011000001001100011 2
b101 1
b10100 -
b10100 #
b10100 )
b101 (
0"
#70000
b10011001010010111 !
b10011001010010111 ,
b10011001010010111 2
b110 1
b11000 -
b11000 #
b11000 )
b110 (
1"
#80000
b10000101000001100110011 !
b10000101000001100110011 ,
b10000101000001100110011 2
b111 1
b11100 -
b11100 #
b11100 )
b111 (
0"
#90000
b1000010000110001001100010011 !
b1000010000110001001100010011 ,
b1000010000110001001100010011 2
b1000 1
b100000 -
b100000 #
b100000 )
b1000 (
1"
#100000
b1000000000000010101101111 !
b1000000000000010101101111 ,
b1000000000000010101101111 2
b1001 1
b100100 -
b100100 #
b100100 )
b1001 (
0"
#110000
b1000000010000110101001100010011 !
b1000000010000110101001100010011 ,
b1000000010000110101001100010011 2
b1010 1
b101000 -
b101000 #
b101000 )
b1010 (
1"
#120000
b10100110111001110110011 !
b10100110111001110110011 ,
b10100110111001110110011 2
b1011 1
b101100 -
b101100 #
b101100 )
b1011 (
0"
#130000
b1111110000111010010000010011 !
b1111110000111010010000010011 ,
b1111110000111010010000010011 2
b1100 1
b110000 -
b110000 #
b110000 )
b1100 (
1"
#140000
b110111010010110111 !
b110111010010110111 ,
b110111010010110111 2
b1101 1
b110100 -
b110100 #
b110100 )
b1101 (
0"
#150000
b1111000001001111010010010011 !
b1111000001001111010010010011 ,
b1111000001001111010010010011 2
b1110 1
b111000 -
b111000 #
b111000 )
b1110 (
1"
#160000
b100100111010010000100011 !
b100100111010010000100011 ,
b100100111010010000100011 2
b1111 1
b111100 -
b111100 #
b111100 )
b1111 (
0"
#170000
b110011 !
b110011 ,
b110011 2
b10000 1
b1000000 -
b1000000 #
b1000000 )
b10000 (
1"
#180000
b10001 1
b1000100 -
b1000100 #
b1000100 )
b10001 (
0"
#190000
b10010 1
b1001000 -
b1001000 #
b1001000 )
b10010 (
1"
#200000
b10011 1
b1001100 -
b1001100 #
b1001100 )
b10011 (
0"
#210000
b10100 1
b1010000 -
b1010000 #
b1010000 )
b10100 (
1"
#220000
b10101 1
b1010100 -
b1010100 #
b1010100 )
b10101 (
0"
#230000
b10110 1
b1011000 -
b1011000 #
b1011000 )
b10110 (
1"
#240000
b10111 1
b1011100 -
b1011100 #
b1011100 )
b10111 (
0"
#250000
b11000 1
b1100000 -
b1100000 #
b1100000 )
b11000 (
1"
#260000
b11001 1
b1100100 -
b1100100 #
b1100100 )
b11001 (
0"
#270000
b11010 1
b1101000 -
b1101000 #
b1101000 )
b11010 (
1"
#280000
b11011 1
b1101100 -
b1101100 #
b1101100 )
b11011 (
0"
#290000
b11100 1
b1110000 -
b1110000 #
b1110000 )
b11100 (
1"
#300000
b11101 1
b1110100 -
b1110100 #
b1110100 )
b11101 (
0"
#310000
b11110 1
b1111000 -
b1111000 #
b1111000 )
b11110 (
1"
#320000
b11111 1
b1111100 -
b1111100 #
b1111100 )
b11111 (
0"
#330000
b100000 1
b10000000 -
b10000000 #
b10000000 )
b100000 (
1"
#340000
b100001 1
b10000100 -
b10000100 #
b10000100 )
b100001 (
0"
#350000
b100010 1
b10001000 -
b10001000 #
b10001000 )
b100010 (
1"
#360000
b100011 1
b10001100 -
b10001100 #
b10001100 )
b100011 (
0"
#370000
b100100 1
b10010000 -
b10010000 #
b10010000 )
b100100 (
1"
#380000
b100101 1
b10010100 -
b10010100 #
b10010100 )
b100101 (
0"
#390000
b100110 1
b10011000 -
b10011000 #
b10011000 )
b100110 (
1"
#400000
b100111 1
b10011100 -
b10011100 #
b10011100 )
b100111 (
0"
#410000
b101000 1
b10100000 -
b10100000 #
b10100000 )
b101000 (
1"
#420000
b101001 1
b10100100 -
b10100100 #
b10100100 )
b101001 (
0"
#430000
b101010 1
b10101000 -
b10101000 #
b10101000 )
b101010 (
1"
#440000
b101011 1
b10101100 -
b10101100 #
b10101100 )
b101011 (
0"
#450000
b101100 1
b10110000 -
b10110000 #
b10110000 )
b101100 (
1"
#460000
b101101 1
b10110100 -
b10110100 #
b10110100 )
b101101 (
0"
#470000
b101110 1
b10111000 -
b10111000 #
b10111000 )
b101110 (
1"
#480000
b101111 1
b10111100 -
b10111100 #
b10111100 )
b101111 (
0"
#490000
b110000 1
b11000000 -
b11000000 #
b11000000 )
b110000 (
1"
#500000
b110001 1
b11000100 -
b11000100 #
b11000100 )
b110001 (
0"
#510000
b110010 1
b11001000 -
b11001000 #
b11001000 )
b110010 (
1"
#520000
b110011 1
b11001100 -
b11001100 #
b11001100 )
b110011 (
0"
#530000
b110100 1
b11010000 -
b11010000 #
b11010000 )
b110100 (
1"
#540000
b110101 1
b11010100 -
b11010100 #
b11010100 )
b110101 (
0"
#550000
b110110 1
b11011000 -
b11011000 #
b11011000 )
b110110 (
1"
#560000
b110111 1
b11011100 -
b11011100 #
b11011100 )
b110111 (
0"
#570000
b111000 1
b11100000 -
b11100000 #
b11100000 )
b111000 (
1"
#580000
b111001 1
b11100100 -
b11100100 #
b11100100 )
b111001 (
0"
#590000
b111010 1
b11101000 -
b11101000 #
b11101000 )
b111010 (
1"
#600000
b111011 1
b11101100 -
b11101100 #
b11101100 )
b111011 (
0"
#610000
b111100 1
b11110000 -
b11110000 #
b11110000 )
b111100 (
1"
#620000
b111101 1
b11110100 -
b11110100 #
b11110100 )
b111101 (
0"
#630000
b111110 1
b11111000 -
b11111000 #
b11111000 )
b111110 (
1"
#640000
b111111 1
b11111100 -
b11111100 #
b11111100 )
b111111 (
0"
#650000
b1000000 1
b100000000 -
b100000000 #
b100000000 )
b1000000 (
1"
#660000
b1000001 1
b100000100 -
b100000100 #
b100000100 )
b1000001 (
0"
#670000
b1000010 1
b100001000 -
b100001000 #
b100001000 )
b1000010 (
1"
#680000
b1000011 1
b100001100 -
b100001100 #
b100001100 )
b1000011 (
0"
#690000
b1000100 1
b100010000 -
b100010000 #
b100010000 )
b1000100 (
1"
#700000
b1000101 1
b100010100 -
b100010100 #
b100010100 )
b1000101 (
0"
#710000
b1000110 1
b100011000 -
b100011000 #
b100011000 )
b1000110 (
1"
#720000
b1000111 1
b100011100 -
b100011100 #
b100011100 )
b1000111 (
0"
#730000
b1001000 1
b100100000 -
b100100000 #
b100100000 )
b1001000 (
1"
#740000
b1001001 1
b100100100 -
b100100100 #
b100100100 )
b1001001 (
0"
#750000
b1001010 1
b100101000 -
b100101000 #
b100101000 )
b1001010 (
1"
#760000
b1001011 1
b100101100 -
b100101100 #
b100101100 )
b1001011 (
0"
#770000
b1001100 1
b100110000 -
b100110000 #
b100110000 )
b1001100 (
1"
#780000
b1001101 1
b100110100 -
b100110100 #
b100110100 )
b1001101 (
0"
#790000
b1001110 1
b100111000 -
b100111000 #
b100111000 )
b1001110 (
1"
#800000
b1001111 1
b100111100 -
b100111100 #
b100111100 )
b1001111 (
0"
#810000
b1010000 1
b101000000 -
b101000000 #
b101000000 )
b1010000 (
1"
#820000
b1010001 1
b101000100 -
b101000100 #
b101000100 )
b1010001 (
0"
#830000
b1010010 1
b101001000 -
b101001000 #
b101001000 )
b1010010 (
1"
#840000
b1010011 1
b101001100 -
b101001100 #
b101001100 )
b1010011 (
0"
#850000
b1010100 1
b101010000 -
b101010000 #
b101010000 )
b1010100 (
1"
#860000
b1010101 1
b101010100 -
b101010100 #
b101010100 )
b1010101 (
0"
#870000
b1010110 1
b101011000 -
b101011000 #
b101011000 )
b1010110 (
1"
#880000
b1010111 1
b101011100 -
b101011100 #
b101011100 )
b1010111 (
0"
#890000
b1011000 1
b101100000 -
b101100000 #
b101100000 )
b1011000 (
1"
#900000
b1011001 1
b101100100 -
b101100100 #
b101100100 )
b1011001 (
0"
#910000
b1011010 1
b101101000 -
b101101000 #
b101101000 )
b1011010 (
1"
#920000
b1011011 1
b101101100 -
b101101100 #
b101101100 )
b1011011 (
0"
#930000
b1011100 1
b101110000 -
b101110000 #
b101110000 )
b1011100 (
1"
#940000
b1011101 1
b101110100 -
b101110100 #
b101110100 )
b1011101 (
0"
#950000
b1011110 1
b101111000 -
b101111000 #
b101111000 )
b1011110 (
1"
#960000
b1011111 1
b101111100 -
b101111100 #
b101111100 )
b1011111 (
0"
#970000
b1100000 1
b110000000 -
b110000000 #
b110000000 )
b1100000 (
1"
#980000
b1100001 1
b110000100 -
b110000100 #
b110000100 )
b1100001 (
0"
#990000
b1100010 1
b110001000 -
b110001000 #
b110001000 )
b1100010 (
1"
#1000000
b1100011 1
b110001100 -
b110001100 #
b110001100 )
b1100011 (
0"
#1010000
b1100100 1
b110010000 -
b110010000 #
b110010000 )
b1100100 (
1"
#1020000
b1100101 1
b110010100 -
b110010100 #
b110010100 )
b1100101 (
0"
#1030000
b1100110 1
b110011000 -
b110011000 #
b110011000 )
b1100110 (
1"
#1040000
b1100111 1
b110011100 -
b110011100 #
b110011100 )
b1100111 (
0"
#1050000
b1101000 1
b110100000 -
b110100000 #
b110100000 )
b1101000 (
1"
#1060000
b1101001 1
b110100100 -
b110100100 #
b110100100 )
b1101001 (
0"
#1070000
b1101010 1
b110101000 -
b110101000 #
b110101000 )
b1101010 (
1"
#1080000
b1101011 1
b110101100 -
b110101100 #
b110101100 )
b1101011 (
0"
#1090000
b1101100 1
b110110000 -
b110110000 #
b110110000 )
b1101100 (
1"
#1100000
b1101101 1
b110110100 -
b110110100 #
b110110100 )
b1101101 (
0"
#1110000
b1101110 1
b110111000 -
b110111000 #
b110111000 )
b1101110 (
1"
#1120000
b1101111 1
b110111100 -
b110111100 #
b110111100 )
b1101111 (
0"
#1130000
b1110000 1
b111000000 -
b111000000 #
b111000000 )
b1110000 (
1"
#1140000
b1110001 1
b111000100 -
b111000100 #
b111000100 )
b1110001 (
0"
#1150000
b1110010 1
b111001000 -
b111001000 #
b111001000 )
b1110010 (
1"
#1160000
b1110011 1
b111001100 -
b111001100 #
b111001100 )
b1110011 (
0"
#1170000
b1110100 1
b111010000 -
b111010000 #
b111010000 )
b1110100 (
1"
#1180000
b1110101 1
b111010100 -
b111010100 #
b111010100 )
b1110101 (
0"
#1190000
b1110110 1
b111011000 -
b111011000 #
b111011000 )
b1110110 (
1"
#1200000
b1110111 1
b111011100 -
b111011100 #
b111011100 )
b1110111 (
0"
#1210000
b1111000 1
b111100000 -
b111100000 #
b111100000 )
b1111000 (
1"
#1220000
b1111001 1
b111100100 -
b111100100 #
b111100100 )
b1111001 (
0"
#1230000
b1111010 1
b111101000 -
b111101000 #
b111101000 )
b1111010 (
1"
#1240000
b1111011 1
b111101100 -
b111101100 #
b111101100 )
b1111011 (
0"
#1250000
b1111100 1
b111110000 -
b111110000 #
b111110000 )
b1111100 (
1"
#1260000
b1111101 1
b111110100 -
b111110100 #
b111110100 )
b1111101 (
0"
#1270000
b1111110 1
b111111000 -
b111111000 #
b111111000 )
b1111110 (
1"
#1280000
b1111111 1
b111111100 -
b111111100 #
b111111100 )
b1111111 (
0"
#1290000
1%
b10000000 (
1"
